{
  "a434becb09946ef074888241c8fce3fc317967dea5af0e8573abaf662f775829": true,
  "a0de6207718eb9bd18f4eb8d782ecf9514844da1ea2225739226316bc858cfb6": true,
  "7fd0d2703c75761419938d1d037ae536bb3d12cb8cc76ea512a79eaf9de2b07f": true
}